<?xml version="1.0" encoding="iso-8859-1"?>
<!-- Generator: Adobe Illustrator 19.0.0, SVG Export Plug-In . SVG Version: 6.00 Build 0)  -->
<svg version="1.1" id="Capa_1" xmlns="http://www.w3.org/2000/svg" xmlns:xlink="http://www.w3.org/1999/xlink" x="0px" y="0px"
	 viewBox="0 0 512 512" style="enable-background:new 0 0 512 512;" xml:space="preserve">
<g>
	<g>
		<path d="M453.85,274.816c-6.656-3.904-13.28-6.624-20.16-8.288c-0.16-0.032-0.352-0.064-0.512-0.128
			c-24.736-6.24-53.44-32.448-74.912-68.416c-21.472-35.968-30.944-73.664-24.704-98.208c1.6-5.984,2.432-12.832,2.432-19.776
			c0-44.096-35.872-80-80-80c-44.096,0-80,35.904-80,80c0,7.456,0.896,14.272,2.656,20.32c0.032,0.128,0.064,0.256,0.096,0.384
			c14.144,52.8-45.664,156.384-98.464,170.528c-0.608,0.128-1.216,0.352-1.792,0.576c-6.88,2.112-12.512,4.544-17.312,7.424
			c-38.272,21.92-51.552,70.88-29.536,109.312c14.88,25.536,41.952,39.808,69.664,39.808c13.536,0,27.2-3.392,39.68-10.56
			c5.856-3.296,11.392-7.52,16.288-12.512c0.384-0.32,0.736-0.672,1.088-1.024c38.592-39.68,159.744-41.44,199.488-2.88
			c0.448,0.416,0.864,0.8,1.312,1.152c3.808,3.52,8.544,7.04,14.592,10.688c18.528,10.72,40.224,13.568,60.864,7.968
			c20.64-5.568,37.824-18.784,48.384-37.248C504.858,345.792,491.738,296.8,453.85,274.816z M255.994,320c-35.296,0-64-28.704-64-64
			c0-35.296,28.704-64,64-64s64,28.704,64,64C319.994,291.296,291.29,320,255.994,320z"/>
	</g>
</g>
<g>
	<g>
		<path d="M501.85,185.824c-11.072-40.128-32.48-77.28-61.952-107.424c-6.112-6.304-16.256-6.4-22.624-0.256
			c-6.304,6.176-6.432,16.288-0.256,22.624c25.696,26.272,44.352,58.624,53.952,93.536c1.952,7.104,8.384,11.776,15.424,11.776
			c1.408,0,2.816-0.192,4.256-0.576C499.163,203.168,504.186,194.368,501.85,185.824z"/>
	</g>
</g>
<g>
	<g>
		<path d="M94.682,78.176C88.378,72,78.266,72.096,72.058,78.4c-29.472,30.144-50.88,67.296-61.92,107.424
			c-2.304,8.544,2.688,17.344,11.2,19.68c1.408,0.384,2.848,0.576,4.256,0.576c7.008,0,13.44-4.672,15.392-11.744
			c9.6-34.912,28.256-67.264,53.952-93.536C101.114,94.464,100.986,84.352,94.682,78.176z"/>
	</g>
</g>
<g>
	<g>
		<path d="M329.723,484.64c-2.24-8.512-10.784-13.728-19.488-11.52c-35.2,9.12-73.376,9.12-108.48,0
			c-8.608-2.208-17.312,2.944-19.488,11.456c-2.208,8.576,2.912,17.312,11.456,19.52c20.192,5.248,41.12,7.904,62.272,7.904
			c21.12,0,42.08-2.656,62.24-7.872C326.81,501.92,331.962,493.152,329.723,484.64z"/>
	</g>
</g>
<g>
	<g>
		<path d="M440.41,203.456c-8.16-29.92-24.256-57.888-46.496-80.832c-6.144-6.272-16.288-6.528-22.624-0.352
			c-6.336,6.144-6.496,16.288-0.384,22.624c18.528,19.104,31.872,42.272,38.624,67.008c1.952,7.104,8.416,11.776,15.424,11.776
			c1.376,0,2.816-0.16,4.224-0.576C437.723,220.768,442.715,211.968,440.41,203.456z"/>
	</g>
</g>
<g>
	<g>
		<path d="M140.698,122.272c-6.304-6.144-16.448-5.984-22.592,0.384c-22.272,22.976-38.368,50.912-46.496,80.832
			C69.274,212,74.298,220.8,82.842,223.136c1.408,0.384,2.816,0.544,4.224,0.544c7.04,0,13.472-4.672,15.424-11.808
			c6.72-24.672,20.064-47.872,38.592-66.976C147.226,138.56,147.066,128.416,140.698,122.272z"/>
	</g>
</g>
<g>
	<g>
		<path d="M314.043,422.592c-2.176-8.544-11.04-13.728-19.456-11.52c-25.92,6.624-51.296,6.624-77.184,0
			c-8.448-2.208-17.248,2.976-19.456,11.52c-2.208,8.576,2.944,17.28,11.52,19.456c15.584,4,30.784,5.952,46.528,5.952
			s30.944-1.952,46.528-5.952C311.098,439.872,316.251,431.136,314.043,422.592z"/>
	</g>
</g>
<g>
</g>
<g>
</g>
<g>
</g>
<g>
</g>
<g>
</g>
<g>
</g>
<g>
</g>
<g>
</g>
<g>
</g>
<g>
</g>
<g>
</g>
<g>
</g>
<g>
</g>
<g>
</g>
<g>
</g>
</svg>
